^C:\USERS\GVOZDEV\DESKTOP\CPLUSPLUSPORT\CPLUSPLUSPORT\VAR3FILENOOOP\VAR3FILENOOOP\VAR3FILENOOOP.CPP
C:\USERS\GVOZDEV\DESKTOP\CPLUSPLUSPORT\CPLUSPLUSPORT\VAR3FILENOOOP\VAR3FILENOOOP\DEBUG\VC142.PDB
C:\USERS\GVOZDEV\DESKTOP\CPLUSPLUSPORT\CPLUSPLUSPORT\VAR3FILENOOOP\VAR3FILENOOOP\DEBUG\VC142.IDB
C:\USERS\GVOZDEV\DESKTOP\CPLUSPLUSPORT\CPLUSPLUSPORT\VAR3FILENOOOP\VAR3FILENOOOP\DEBUG\VAR3FILENOOOP.OBJ
